<svg width="30" height="30" viewBox="0 0 30 30" fill="none" xmlns="http://www.w3.org/2000/svg">
<path d="M3.75 21.25H26.25V23.75H3.75V21.25ZM3.75 12.5H26.25V18.75H3.75V12.5ZM3.75 7.5H26.25V10H3.75V7.5Z" fill="#F24F63"/>
</svg>
